<svg xmlns="http://www.w3.org/2000/svg" width="15" height="9" viewBox="0 0 15 9">
    <g>
        <g>
            <path fill="#22929d"
                  d="M10.875 9c.125 0 .219-.031.281-.093l3.75-4.104c.063-.062.094-.155.094-.28 0-.124-.031-.217-.094-.28-.031-.03-1.281-1.398-3.75-4.103-.187-.187-.375-.187-.562 0-.188.186-.188.373 0 .56l3.14 3.45H.375c-.25 0-.375.125-.375.373 0 .249.125.373.375.373h13.36l-3.141 3.451c-.188.187-.188.373 0 .56.062.062.156.093.281.093z"/>
        </g>
    </g>
</svg>